<svg version="1.0" xmlns="http://www.w3.org/2000/svg"
 width="296.000000pt" height="300.000000pt" viewBox="0 0 296.000000 300.000000" preserveAspectRatio="xMidYMid meet">
    <g transform="translate(0.000000,300.000000) scale(0.100000,-0.100000)" fill="#000000" stroke="none">
        <path d="M1355 2979 c-32 -18 -755 -741 -770 -770 -30 -56 -18 -71 385 -474
        l380 -380 0 -482 c0 -266 -3 -483 -8 -483 -4 0 -203 196 -442 436 -239 239
        -445 440 -458 445 -30 12 -64 -6 -121 -65 -80 -82 -114 -38 480 -633 298 -299
        538 -531 556 -539 38 -17 188 -19 230 -4 15 6 269 252 566 548 421 421 537
        542 537 562 0 19 -117 142 -542 567 l-543 543 -5 350 c-5 318 -7 351 -23 367
        -14 14 -37 19 -110 21 -55 1 -100 -2 -112 -9z m-5 -809 c0 -247 -4 -450 -8
        -450 -4 0 -109 101 -232 225 l-224 225 224 225 c124 124 228 225 232 225 5 0
        8 -202 8 -450z m640 -655 l375 -375 -375 -375 c-206 -206 -378 -375 -382 -375
        -5 0 -8 338 -8 750 0 413 3 750 8 750 4 0 176 -169 382 -375z"/>
    </g>
</svg>
